{
  "alias_barrier_modules": [
    "Tezos_protocol_environment_alpha__Environment"
  ],
  "constant_warning": false,
  "constructor_map": [
    ["public_key_hash", "Ed25519", "Ed25519Hash"],
    ["public_key_hash", "P256", "P256Hash"],
    ["public_key_hash", "Secp256k1", "Secp256k1Hash"]
  ],
  "error_category_blacklist": [
    "side_effect"
  ],
  "error_message_blacklist": [
    "Unbound module Tezos_protocol_alpha_functor",
    "The placeholders `_` in types are not handled",
    "This kind of signature (ident) is not handled."
  ],
  "escape_value": [
    "a",
    "acc",
    "accu",
    "alloc",
    "b",
    "baking_rights_query",
    "big_map_get_all_query",
    "case",
    "cons",
    "context",
    "descr",
    "diff",
    "elt",
    "endorsing_rights_query",
    "eq",
    "error",
    "field",
    "fixed",
    "fp",
    "frozen_balance",
    "gas_counter_status",
    "handler",
    "has_big_map",
    "has_lazy_storage",
    "hash",
    "info",
    "init",
    "integral",
    "internal_gas",
    "json",
    "json_schema",
    "judgement",
    "k",
    "key",
    "key_maker",
    "kind",
    "kinfo",
    "kinstr_rewritek",
    "kinstr_traverse",
    "l",
    "lazy_expr",
    "level_query",
    "list_query",
    "may_saturate",
    "mul_safe",
    "namespace",
    "node",
    "nonce",
    "query",
    "p",
    "parametric",
    "r",
    "raw",
    "round_and_offset",
    "seed",
    "sequence",
    "size",
    "snapshot",
    "stack",
    "stack_ty_traverse",
    "state",
    "storage",
    "storage_error",
    "t",
    "tc_context",
    "toplevel",
    "trace",
    "ty_metadata",
    "ty_traverse",
    "type_logger",
    "value",
    "value_traverse"
  ],
  "first_class_module_path_blacklist": [
    "Tezos_raw_protocol_alpha",
    "Tezos_protocol_environment_alpha.Environment",
    "Tezos_protocol_environment_alpha.Environment.Sapling"
  ],
  "first_class_module_signature_blacklist": [
    "Tezos_raw_protocol_alpha.Alpha_context.Cache.CLIENT",
    "Tezos_raw_protocol_alpha.Alpha_context.Cache.INTERFACE",
    "Tezos_raw_protocol_alpha.Raw_context.T",
    "Tezos_sapling__Core_sig.T_encoding"
  ],
  "monadic_lets": [
    ["Error_monad.op_gtgteq", "let"],
    ["Error_monad.op_gtgteqquestion", "let?"],
    ["Error_monad.op_gtgtquestion", "let?"]
  ],
  "monadic_let_returns": [
    ["Error_monad.op_gtpipeeq", "let", ""],
    ["Error_monad.op_gtpipeeqquestion", "let?", "return?"],
    ["Error_monad.op_gtpipequestion", "let?", "return?"]
  ],
  "monadic_returns": [
    ["Lwt._return", ""],
    ["Error_monad._return", "return?"],
    ["Error_monad.ok", "return?"]
  ],
  "monadic_return_lets": [
    ["Error_monad.op_gtgtquestioneq", "", "let?"]
  ],
  "operator_infix": [
    ["Compare.Int.(Compare.S.op_eq)", "=i"],
    ["Compare.Int.(Compare.S.op_ltgt)", "<>i"],
    ["Compare.Int.(Compare.S.op_lteq)", "<=i"],
    ["Compare.Int.(Compare.S.op_lt)", "<i"],
    ["Compare.Int.(Compare.S.op_gteq)", ">=i"],
    ["Compare.Int.(Compare.S.op_gt)", ">i"],

    ["Compare.Int32.(Compare.S.op_eq)", "=i32"],
    ["Compare.Int32.(Compare.S.op_ltgt)", "<>i32"],
    ["Compare.Int32.(Compare.S.op_lteq)", "<=i32"],
    ["Compare.Int32.(Compare.S.op_lt)", "<i32"],
    ["Compare.Int32.(Compare.S.op_gteq)", ">=i32"],
    ["Compare.Int32.(Compare.S.op_gt)", ">i32"],

    ["Compare.Int64.(Compare.S.op_eq)", "=i64"],
    ["Compare.Int64.(Compare.S.op_ltgt)", "<>i64"],
    ["Compare.Int64.(Compare.S.op_lteq)", "<=i64"],
    ["Compare.Int64.(Compare.S.op_lt)", "<i64"],
    ["Compare.Int64.(Compare.S.op_gteq)", ">=i64"],
    ["Compare.Int64.(Compare.S.op_gt)", ">i64"],

    ["Compare.Z.(Compare.S.op_eq)", "=Z"],
    ["Compare.Z.(Compare.S.op_ltgt)", "<>Z"],
    ["Compare.Z.(Compare.S.op_lteq)", "<=Z"],
    ["Compare.Z.(Compare.S.op_lt)", "<Z"],
    ["Compare.Z.(Compare.S.op_gteq)", ">=Z"],
    ["Compare.Z.(Compare.S.op_gt)", ">Z"],

    ["Int32.add", "+i32"],
    ["Int32.sub", "-i32"],
    ["Int32.mul", "*i32"],
    ["Int32.div", "/i32"],

    ["Int64.add", "+i64"],
    ["Int64.sub", "-i64"],
    ["Int64.mul", "*i64"],
    ["Int64.div", "/i64"],

    ["Pervasives.op_andand", "&&"],
    ["Pervasives.op_pipepipe", "||"],

    ["Pervasives.op_plus", "+i"],
    ["Pervasives.op_minus", "-i"],
    ["Pervasives.op_star", "*i"],
    ["Pervasives.op_div", "/i"],

    ["Z.add", "+Z"],
    ["Z.sub", "-Z"],
    ["Z.mul", "*Z"],
    ["Z.div", "/Z"],

    ["Z_syntax.op_plus", "+Z"],
    ["Z_syntax.op_star", "*Z"]
  ],
  "renaming_rules": [
    ["Error_monad.tzresult", "M?"],
    ["Lwt.t", ""],
    ["Failure", "Failure"],

    ["Storage.Seed.unrevealed_nonce.delegate", "Storage.Cycle.unrevealed_nonce.delegate"],
    ["Storage.Seed.unrevealed_nonce.fees", "Storage.Cycle.unrevealed_nonce.fees"],
    ["Storage.Seed.unrevealed_nonce.nonce_hash", "Storage.Cycle.unrevealed_nonce.nonce_hash"],
    ["Storage.Seed.unrevealed_nonce.rewards", "Storage.Cycle.unrevealed_nonce.rewards"],
    ["Storage.Seed.Revealed", "Storage.Cycle.Revealed"],
    ["Storage.Seed.Unrevealed", "Storage.Cycle.Unrevealed"],

    ["Alpha_context.Nonce.unrevealed.delegate", "Storage.Cycle.unrevealed_nonce.delegate"],
    ["Alpha_context.Nonce.unrevealed.fees", "Storage.Cycle.unrevealed_nonce.fees"],
    ["Alpha_context.Nonce.unrevealed.nonce_hash", "Storage.Cycle.unrevealed_nonce.nonce_hash"],
    ["Alpha_context.Nonce.unrevealed.rewards", "Storage.Cycle.unrevealed_nonce.rewards"],
    ["Alpha_context.Nonce.Revealed", "Storage.Cycle.Revealed"],
    ["Alpha_context.Nonce.Unrevealed", "Storage.Cycle.Unrevealed"]
  ],
  "renaming_type_constructor": [
    ["Compare.Char.(Compare.S.t)", "ascii"],
    ["Compare.Int.(Compare.S.t)", "int"],
    ["Compare.Int32.(Compare.S.t)", "int32"],
    ["Compare.Int64.(Compare.S.t)", "int64"],
    ["Compare.String.(Compare.S.t)", "string"],
    ["Compare.Z.(Compare.S.t)", "Z.t"]
  ],
  "require": [
    ["Tezos_raw_protocol_alpha", "TezosOfOCaml.Proto_alpha"]
  ],
  "require_import": [
    ["Tezos_protocol_environment_alpha", "TezosOfOCaml.Proto_alpha"]
  ],
  "require_long_ident": [
    ["Storage_description", "TezosOfOCaml.Proto_alpha"]
  ],
  "require_mli": [
    "Script_ir_translator"
  ],
  "variant_constructors": [
    ["Lt", "Context.Lt"],
    ["Le", "Context.Le"],
    ["Eq", "Context.Eq"],
    ["Ge", "Context.Ge"],
    ["Gt", "Context.Gt"],
    ["Sorted", "Context.Sorted"],
    ["Undefined", "Context.Undefined"],
    ["Tree", "Context.Kind.Tree"],
    ["Value", "Context.Kind.Value"],
    ["Dir", "Context.Dir"],
    ["Key", "Context.Key"],
    ["Uint16", "Data_encoding.Uint16"],
    ["Uint8", "Data_encoding.Uint8"],
    ["Hex", "Hex.Hex"],
    ["Branch", "Error_monad.Branch"],
    ["Outdated", "Error_monad.Outdated"],
    ["Permanent", "Error_monad.Permanent"],
    ["Temporary", "Error_monad.Temporary"]
  ],
  "variant_types": [
    ["Lt", "Context.depth"],
    ["Le", "Context.depth"],
    ["Eq", "Context.depth"],
    ["Ge", "Context.depth"],
    ["Gt", "Context.depth"],
    ["Sorted", "Context.order"],
    ["Undefined", "Context.order"],
    ["Tree", "Context.Kind.t"],
    ["Value", "Context.Kind.t"],
    ["Dir", "Context.key_or_dir"],
    ["Key", "Context.key_or_dir"]
  ],
  "without_guard_checking": [
    "apply.ml",
    "apply_results.ml",
    "baking.ml",
    "contract_repr.ml",
    "delegate_services.ml",
    "delegate_storage.ml",
    "fixed_point_repr.ml",
    "global_constants_storage.ml",
    "helpers_services.ml",
    "lazy_storage_kind.ml",
    "legacy_script_support_repr.ml",
    "level_repr.ml",
    "level_storage.ml",
    "michelson_v1_gas.ml",
    "michelson_v1_primitives.ml",
    "misc.ml",
    "raw_context.ml",
    "roll_storage_legacy.ml",
    "round_repr.ml",
    "sampler.ml",
    "sapling_storage.ml",
    "script_comparable.ml",
    "script_interpreter.ml",
    "script_interpreter_defs.ml",
    "script_ir_annot.ml",
    "script_ir_translator.ml",
    "script_repr.ml",
    "script_string_repr.ml",
    "seed_repr.ml",
    "storage_description.ml",
    "storage_functors.ml",
    "tez_repr.ml",
    "ticket_scanner.ml"
  ],
  "without_positivity_checking": [
    "misc.ml",
    "script_typed_ir.ml",
    "storage_description.ml"
  ]
}
